{
    "docker": {
        "image": "mongodb",
        "disks": [
            { "guest": "/var/lib/mongodb", "host": null }
        ],
        "ports": [
            { "port": 27017, "protocol": "mongodb" },
        ],
        "restart": "always"
    }
}
